<svg xmlns="http://www.w3.org/2000/svg" width="16.313" height="32" viewBox="0 0 16.313 32">
  <g id="juice" transform="translate(-125.497)">
    <g id="Group_115" data-name="Group 115" transform="translate(125.497 0)">
      <g id="Group_114" data-name="Group 114" transform="translate(0)">
        <path id="Path_64" data-name="Path 64" d="M140.017,9.658A3.733,3.733,0,0,1,138.984,8.4c-.006-.013-.012-.026-.019-.038a3.745,3.745,0,0,1-.343-1.106.469.469,0,1,0-.928.136,4.721,4.721,0,0,0,.167.728h-8.414a4.7,4.7,0,0,0,.214-1.4V4.546h7.985v.963a.469.469,0,0,0,.938,0V4.546h.118a1.578,1.578,0,0,0,1.577-1.576V1.576A1.578,1.578,0,0,0,138.7,0h-10.1a1.578,1.578,0,0,0-1.577,1.577V2.969a1.578,1.578,0,0,0,1.577,1.576h.118V6.712a3.738,3.738,0,0,1-.37,1.629.467.467,0,0,0-.035.068,3.738,3.738,0,0,1-1.029,1.249,4.653,4.653,0,0,0-1.793,3.684V24.736a.469.469,0,0,0,.938,0V13.342a3.721,3.721,0,0,1,1.434-2.946,4.688,4.688,0,0,0,1.168-1.342h9.236a4.676,4.676,0,0,0,1.166,1.342,3.721,3.721,0,0,1,1.434,2.946v16.2a1.524,1.524,0,0,1-1.522,1.522H127.957a1.524,1.524,0,0,1-1.522-1.522V26.814a.469.469,0,1,0-.937,0V29.54a2.463,2.463,0,0,0,2.46,2.46H139.35a2.463,2.463,0,0,0,2.46-2.46v-16.2A4.653,4.653,0,0,0,140.017,9.658Zm-11.412-6.05a.64.64,0,0,1-.639-.639V1.576a.64.64,0,0,1,.639-.639h10.1a.64.64,0,0,1,.639.639V2.969a.64.64,0,0,1-.639.639Z" transform="translate(-125.497 0)" fill="#327642"/>
        <path id="Path_65" data-name="Path 65" d="M159.2,168.056h-1.112a1.2,1.2,0,0,0-1.2,1.2v10.985a1.2,1.2,0,0,0,1.2,1.2h9.994a1.2,1.2,0,0,0,1.2-1.2V169.254a1.2,1.2,0,0,0-1.2-1.2h-.547a5.388,5.388,0,0,0,.618-2.454,1.129,1.129,0,0,0-1.172-1.172,4.629,4.629,0,0,0-3.232,1.2,3.536,3.536,0,0,0-.644.9,2.6,2.6,0,0,0-1.665-1.239.469.469,0,1,0-.232.908,1.685,1.685,0,0,1,1.229,1.109l-.042-.016A2.874,2.874,0,0,0,159.2,168.056Zm5.212-1.764a4.015,4.015,0,0,1,2.6-.925.192.192,0,0,1,.2.2,4.579,4.579,0,0,1-.579,2.163,2.883,2.883,0,0,0-.7-.418l.55-.55a.469.469,0,0,0-.663-.663l-.991.991a2.84,2.84,0,0,0-1.038.2A2.8,2.8,0,0,1,164.412,166.292Zm-.284,1.869a1.932,1.932,0,0,1,2.447.966,3.479,3.479,0,0,1-.2,3.369.469.469,0,1,0,.792.5,4.409,4.409,0,0,0,.375-4h.542a.26.26,0,0,1,.26.26v10.985a.26.26,0,0,1-.26.26h-9.994a.26.26,0,0,1-.26-.26V169.254a.26.26,0,0,1,.26-.26h.553a4.458,4.458,0,0,0,.437,4.1l1.15,1.719a1.936,1.936,0,0,0,1.612.861,1.372,1.372,0,0,0,.817-.268.729.729,0,0,1,.866,0,1.372,1.372,0,0,0,.817.268,1.936,1.936,0,0,0,1.612-.861l.311-.465a.469.469,0,0,0-.779-.521l-.311.465a1,1,0,0,1-.833.445.441.441,0,0,1-.262-.086,1.663,1.663,0,0,0-1.976,0,.441.441,0,0,1-.262.086,1,1,0,0,1-.833-.445l-1.15-1.719a3.513,3.513,0,0,1-.253-3.445,1.932,1.932,0,0,1,2.447-.966A2.822,2.822,0,0,0,164.128,168.161Z" transform="translate(-154.928 -154.153)" fill="#327642"/>
        <path id="Path_66" data-name="Path 66" d="M216.221,365.244h-4.678a.469.469,0,1,0,0,.938h4.678a.469.469,0,1,0,0-.937Z" transform="translate(-205.725 -342.416)" fill="#327642"/>
        <path id="Path_67" data-name="Path 67" d="M231.512,394.476h-2.494a.469.469,0,1,0,0,.938h2.494a.469.469,0,1,0,0-.937Z" transform="translate(-222.108 -369.821)" fill="#327642"/>
      </g>
    </g>
  </g>
</svg>
