<svg xmlns="http://www.w3.org/2000/svg" width="6.418" height="11.258" viewBox="0 0 6.418 11.258">
  <path id="Path_3" data-name="Path 3" d="M103.325,6.186l-4.841,4.841a.788.788,0,0,1-1.115-1.115l4.283-4.283L97.369,1.346A.788.788,0,0,1,98.484.231l4.841,4.841a.788.788,0,0,1,0,1.115Z" transform="translate(-97.138 0)" fill="#a89e5e"/>
</svg>
